%YAML 1.1
%TAG !u! tag:unity3d.com,2011:
--- !u!74 &7400000
AnimationClip:
  m_ObjectHideFlags: 0
  m_CorrespondingSourceObject: {fileID: 0}
  m_PrefabInstance: {fileID: 0}
  m_PrefabAsset: {fileID: 0}
  m_Name: Jump
  serializedVersion: 6
  m_Legacy: 0
  m_Compressed: 0
  m_UseHighQualityCurve: 1
  m_RotationCurves: []
  m_CompressedRotationCurves: []
  m_EulerCurves: []
  m_PositionCurves: []
  m_ScaleCurves: []
  m_FloatCurves: []
  m_PPtrCurves:
  - curve:
    - time: 0
      value: {fileID: 21300000, guid: 13621808c665d98418b523e65fc82992, type: 3}
    - time: 0.083333336
      value: {fileID: 21300000, guid: abf7ee93bd16bd44facb799ea5b94c41, type: 3}
    - time: 0.16666667
      value: {fileID: 21300000, guid: dc0c2fb57c8a30a4b9d6aa27a91c6b94, type: 3}
    - time: 0.25
      value: {fileID: 21300000, guid: 99b074df3ddff164ea430707730b51d8, type: 3}
    - time: 0.33333334
      value: {fileID: 21300000, guid: d51c9c8edd2a8b04698ad1aa9048b2f1, type: 3}
    - time: 0.41666666
      value: {fileID: 21300000, guid: 3f97307f279842344a63dc5790dd3391, type: 3}
    - time: 0.5
      value: {fileID: 21300000, guid: 2d0878a31ea7c9d478663e325a8d10c8, type: 3}
    - time: 0.5833333
      value: {fileID: 21300000, guid: aadf915b7ee93e746b5757f8daca1ca5, type: 3}
    - time: 0.6666667
      value: {fileID: 21300000, guid: f60a42de0dca92b43a330f092f7dd028, type: 3}
    - time: 0.75
      value: {fileID: 21300000, guid: 4f125ab6e3ad8d84bb1c2429dfd2ca78, type: 3}
    attribute: m_Sprite
    path: 
    classID: 212
    script: {fileID: 0}
  m_SampleRate: 12
  m_WrapMode: 0
  m_Bounds:
    m_Center: {x: 0, y: 0, z: 0}
    m_Extent: {x: 0, y: 0, z: 0}
  m_ClipBindingConstant:
    genericBindings:
    - serializedVersion: 2
      path: 0
      attribute: 0
      script: {fileID: 0}
      typeID: 212
      customType: 23
      isPPtrCurve: 1
    pptrCurveMapping:
    - {fileID: 21300000, guid: 13621808c665d98418b523e65fc82992, type: 3}
    - {fileID: 21300000, guid: abf7ee93bd16bd44facb799ea5b94c41, type: 3}
    - {fileID: 21300000, guid: dc0c2fb57c8a30a4b9d6aa27a91c6b94, type: 3}
    - {fileID: 21300000, guid: 99b074df3ddff164ea430707730b51d8, type: 3}
    - {fileID: 21300000, guid: d51c9c8edd2a8b04698ad1aa9048b2f1, type: 3}
    - {fileID: 21300000, guid: 3f97307f279842344a63dc5790dd3391, type: 3}
    - {fileID: 21300000, guid: 2d0878a31ea7c9d478663e325a8d10c8, type: 3}
    - {fileID: 21300000, guid: aadf915b7ee93e746b5757f8daca1ca5, type: 3}
    - {fileID: 21300000, guid: f60a42de0dca92b43a330f092f7dd028, type: 3}
    - {fileID: 21300000, guid: 4f125ab6e3ad8d84bb1c2429dfd2ca78, type: 3}
  m_AnimationClipSettings:
    serializedVersion: 2
    m_AdditiveReferencePoseClip: {fileID: 0}
    m_AdditiveReferencePoseTime: 0
    m_StartTime: 0
    m_StopTime: 0.8333333
    m_OrientationOffsetY: 0
    m_Level: 0
    m_CycleOffset: 0
    m_HasAdditiveReferencePose: 0
    m_LoopTime: 1
    m_LoopBlend: 0
    m_LoopBlendOrientation: 0
    m_LoopBlendPositionY: 0
    m_LoopBlendPositionXZ: 0
    m_KeepOriginalOrientation: 0
    m_KeepOriginalPositionY: 1
    m_KeepOriginalPositionXZ: 0
    m_HeightFromFeet: 0
    m_Mirror: 0
  m_EditorCurves: []
  m_EulerEditorCurves: []
  m_HasGenericRootTransform: 0
  m_HasMotionFloatCurves: 0
  m_Events: []
